17:34:16:337.839603 [INFO  ] test          - test - 0
17:34:16:444.844007 [INFO  ] test          - test - 1
17:34:16:546.845913 [INFO  ] test          - test - 2
17:34:16:712.851763 [INFO  ] test          - test - 3
17:34:16:821.855307 [INFO  ] test          - test - 4
17:34:16:928.858995 [INFO  ] test          - test - 5
17:34:17:029.863596 [INFO  ] test          - test - 6
17:34:17:131.866217 [INFO  ] test          - test - 7
17:34:17:232.869387 [INFO  ] test          - test - 8
17:34:17:334.873199 [INFO  ] test          - test - 9
17:34:17:437.875748 [INFO  ] test          - test - 10
17:34:17:551.879644 [INFO  ] test          - test - 11
17:34:17:653.883457 [INFO  ] test          - test - 12
17:34:17:754.886627 [INFO  ] test          - test - 13
17:34:17:860.889912 [INFO  ] test          - test - 14
17:34:17:962.893724 [INFO  ] test          - test - 15
17:34:18:067.895651 [INFO  ] test          - test - 16
17:34:18:176.491261 [INFO  ] test          - test - 17
17:34:18:278.495312 [INFO  ] test          - test - 18
17:34:18:400.498390 [INFO  ] test          - test - 19
17:34:18:506.502151 [INFO  ] test          - test - 20
17:34:18:607.506037 [INFO  ] test          - test - 21
17:34:18:711.508751 [INFO  ] test          - test - 22
17:34:18:816.513062 [INFO  ] test          - test - 23
17:34:18:931.516171 [INFO  ] test          - test - 24
17:34:19:034.519434 [INFO  ] test          - test - 25
17:34:19:135.523081 [INFO  ] test          - test - 26
17:34:19:238.526821 [INFO  ] test          - test - 27
17:34:19:341.529846 [INFO  ] test          - test - 28
17:34:19:445.533276 [INFO  ] test          - test - 29
17:34:19:547.536612 [INFO  ] test          - test - 30
17:34:19:650.540352 [INFO  ] test          - test - 31
17:34:19:754.543304 [INFO  ] test          - test - 32
17:34:19:857.546568 [INFO  ] test          - test - 33
17:34:19:958.550453 [INFO  ] test          - test - 34
17:34:20:060.553551 [INFO  ] test          - test - 35
17:34:20:167.556763 [INFO  ] test          - test - 36
17:34:20:269.561052 [INFO  ] test          - test - 37
17:34:20:373.563766 [INFO  ] test          - test - 38
17:34:20:474.567175 [INFO  ] test          - test - 39
17:34:20:583.564281 [INFO  ] test          - test - 40
17:34:20:689.574242 [INFO  ] test          - test - 41
17:34:20:793.577433 [INFO  ] test          - test - 42
17:34:20:908.574104 [INFO  ] test          - test - 43
17:34:21:016.585112 [INFO  ] test          - test - 44
17:34:21:119.581699 [INFO  ] test          - test - 45
17:34:21:221.592426 [INFO  ] test          - test - 46
17:34:21:322.594881 [INFO  ] test          - test - 47
17:34:21:431.598186 [INFO  ] test          - test - 48
17:34:21:535.602570 [INFO  ] test          - test - 49
17:34:21:646.604776 [INFO  ] test          - test - 50
17:34:21:757.608175 [INFO  ] test          - test - 51
17:34:21:860.612869 [INFO  ] test          - test - 52
17:34:21:965.615034 [INFO  ] test          - test - 53
17:34:22:071.619272 [INFO  ] test          - test - 54
17:34:22:183.622837 [INFO  ] test          - test - 55
17:34:22:286.626816 [INFO  ] test          - test - 56
17:34:22:390.630484 [INFO  ] test          - test - 57
17:34:22:492.633581 [INFO  ] test          - test - 58
17:34:22:595.635891 [INFO  ] test          - test - 59
17:34:22:697.640657 [INFO  ] test          - test - 60
17:34:22:812.644005 [INFO  ] test          - test - 61
17:34:22:925.647974 [INFO  ] test          - test - 62
17:34:23:026.644230 [INFO  ] test          - test - 63
17:34:23:127.655029 [INFO  ] test          - test - 64
17:34:23:231.658220 [INFO  ] test          - test - 65
17:34:23:342.661381 [INFO  ] test          - test - 66
17:34:23:449.665546 [INFO  ] test          - test - 67
17:34:23:552.662611 [INFO  ] test          - test - 68
17:34:23:654.672146 [INFO  ] test          - test - 69
17:34:23:756.674767 [INFO  ] test          - test - 70
17:34:23:869.678497 [INFO  ] test          - test - 71
17:34:23:976.681948 [INFO  ] test          - test - 72
17:34:24:078.686476 [INFO  ] test          - test - 73
17:34:24:182.689428 [INFO  ] test          - test - 74
17:34:24:284.692764 [INFO  ] test          - test - 75
17:34:24:399.695873 [INFO  ] test          - test - 76
17:34:24:502.700329 [INFO  ] test          - test - 77
17:34:24:615.702868 [INFO  ] test          - test - 78
17:34:24:720.706224 [INFO  ] test          - test - 79
17:34:24:822.710037 [INFO  ] test          - test - 80
17:34:24:924.714565 [INFO  ] test          - test - 81
17:34:25:026.716709 [INFO  ] test          - test - 82
17:34:25:128.720284 [INFO  ] test          - test - 83
17:34:25:232.723713 [INFO  ] test          - test - 84
17:34:25:334.727764 [INFO  ] test          - test - 85
17:34:25:437.730789 [INFO  ] test          - test - 86
17:34:25:539.734125 [INFO  ] test          - test - 87
17:34:25:641.736269 [INFO  ] test          - test - 88
17:34:25:742.741108 [INFO  ] test          - test - 89
17:34:25:845.744133 [INFO  ] test          - test - 90
17:34:25:949.747562 [INFO  ] test          - test - 91
17:34:26:052.751064 [INFO  ] test          - test - 92
17:34:26:166.754484 [INFO  ] test          - test - 93
17:34:26:273.756981 [INFO  ] test          - test - 94
17:34:26:374.762535 [INFO  ] test          - test - 95
17:34:26:477.764368 [INFO  ] test          - test - 96
17:34:26:585.767746 [INFO  ] test          - test - 97
17:34:26:690.771341 [INFO  ] test          - test - 98
17:34:26:793.776035 [INFO  ] test          - test - 99
17:40:12:732.386112 [INFO  ] test          - test - 0
17:40:12:851.391077 [INFO  ] test          - test - 1
17:40:12:961.393833 [INFO  ] test          - test - 2
17:40:13:075.397968 [INFO  ] test          - test - 3
17:40:13:181.402206 [INFO  ] test          - test - 4
17:40:13:288.404942 [INFO  ] test          - test - 5
17:40:13:397.407770 [INFO  ] test          - test - 6
17:40:13:507.412195 [INFO  ] test          - test - 7
17:40:13:618.414879 [INFO  ] test          - test - 8
17:40:13:732.418537 [INFO  ] test          - test - 9
17:40:13:854.422808 [INFO  ] test          - test - 10
17:40:13:964.476585 [INFO  ] test          - test - 11
17:40:14:069.428921 [INFO  ] test          - test - 12
17:40:14:184.433460 [INFO  ] test          - test - 13
17:40:14:291.437864 [INFO  ] test          - test - 14
17:40:14:400.439739 [INFO  ] test          - test - 15
17:40:14:520.443201 [INFO  ] test          - test - 16
17:40:14:631.446600 [INFO  ] test          - test - 17
17:40:14:740.451097 [INFO  ] test          - test - 18
17:40:14:846.447945 [INFO  ] test          - test - 19
17:40:14:953.457832 [INFO  ] test          - test - 20
17:40:15:061.460495 [INFO  ] test          - test - 21
17:40:15:168.464422 [INFO  ] test          - test - 22
17:40:15:284.468174 [INFO  ] test          - test - 23
17:40:15:398.470879 [INFO  ] test          - test - 24
17:40:15:521.474838 [INFO  ] test          - test - 25
17:40:15:631.478786 [INFO  ] test          - test - 26
17:40:15:754.482746 [INFO  ] test          - test - 27
17:40:15:872.485638 [INFO  ] test          - test - 28
17:40:15:985.490799 [INFO  ] test          - test - 29
17:40:16:090.494156 [INFO  ] test          - test - 30
17:40:16:203.496695 [INFO  ] test          - test - 31
17:40:16:313.500643 [INFO  ] test          - test - 32
17:40:16:421.504498 [INFO  ] test          - test - 33
17:40:16:529.507160 [INFO  ] test          - test - 34
17:40:16:639.510632 [INFO  ] test          - test - 35
17:40:16:748.508453 [INFO  ] test          - test - 36
17:40:16:857.517481 [INFO  ] test          - test - 37
17:40:16:971.521616 [INFO  ] test          - test - 38
17:40:17:075.524569 [INFO  ] test          - test - 39
17:40:17:191.527367 [INFO  ] test          - test - 40
17:40:17:312.531948 [INFO  ] test          - test - 41
17:40:17:437.536240 [INFO  ] test          - test - 42
17:40:17:556.539297 [INFO  ] test          - test - 43
17:40:17:681.543589 [INFO  ] test          - test - 44
17:40:17:792.547703 [INFO  ] test          - test - 45
17:40:17:906.551123 [INFO  ] test          - test - 46
17:40:18:015.554905 [INFO  ] test          - test - 47
17:40:18:136.557817 [INFO  ] test          - test - 48
17:40:18:252.562761 [INFO  ] test          - test - 49
17:40:18:361.565590 [INFO  ] test          - test - 50
17:40:18:470.569372 [INFO  ] test          - test - 51
17:40:18:586.571693 [INFO  ] test          - test - 52
17:40:18:704.575777 [INFO  ] test          - test - 53
17:40:18:818.580151 [INFO  ] test          - test - 54
17:40:18:931.576252 [INFO  ] test          - test - 55
17:40:19:042.587042 [INFO  ] test          - test - 56
17:40:19:158.591032 [INFO  ] test          - test - 57
17:40:19:269.595385 [INFO  ] test          - test - 58
17:40:19:380.598068 [INFO  ] test          - test - 59
17:40:19:491.601944 [INFO  ] test          - test - 60
17:40:19:607.604980 [INFO  ] test          - test - 61
17:40:19:727.608204 [INFO  ] test          - test - 62
17:40:19:969.615936 [INFO  ] test          - test - 63
17:40:20:085.620165 [INFO  ] test          - test - 64
17:40:20:205.623865 [INFO  ] test          - test - 65
17:40:20:319.628000 [INFO  ] test          - test - 66
17:40:20:427.631140 [INFO  ] test          - test - 67
17:40:20:543.633938 [INFO  ] test          - test - 68
17:40:20:666.638613 [INFO  ] test          - test - 69
17:40:20:791.636229 [INFO  ] test          - test - 70
17:40:20:907.646656 [INFO  ] test          - test - 71
17:40:21:017.649651 [INFO  ] test          - test - 72
17:40:21:127.653599 [INFO  ] test          - test - 73
17:40:21:233.656406 [INFO  ] test          - test - 74
17:40:21:369.660616 [INFO  ] test          - test - 75
17:40:21:478.664160 [INFO  ] test          - test - 76
17:40:21:591.667652 [INFO  ] test          - test - 77
17:40:21:707.671881 [INFO  ] test          - test - 78
17:40:21:811.674833 [INFO  ] test          - test - 79
17:40:21:919.678211 [INFO  ] test          - test - 80
17:40:22:027.681589 [INFO  ] test          - test - 81
17:40:22:138.686419 [INFO  ] test          - test - 82
17:40:22:252.688646 [INFO  ] test          - test - 83
17:40:22:363.691807 [INFO  ] test          - test - 84
17:40:22:474.695683 [INFO  ] test          - test - 85
17:40:22:585.698843 [INFO  ] test          - test - 86
17:40:22:693.696499 [INFO  ] test          - test - 87
17:40:22:834.707737 [INFO  ] test          - test - 88
17:40:22:946.711063 [INFO  ] test          - test - 89
17:40:23:056.714535 [INFO  ] test          - test - 90
17:40:23:170.717239 [INFO  ] test          - test - 91
17:40:23:288.720846 [INFO  ] test          - test - 92
17:40:23:397.724390 [INFO  ] test          - test - 93
17:40:23:518.728256 [INFO  ] test          - test - 94
17:40:23:644.732475 [INFO  ] test          - test - 95
17:40:23:765.736103 [INFO  ] test          - test - 96
17:40:23:965.742826 [INFO  ] test          - test - 97
17:40:24:080.746889 [INFO  ] test          - test - 98
17:40:24:203.749895 [INFO  ] test          - test - 99
18:37:10:252.316952 [INFO  ] test          - test - 0
18:37:10:354.318619 [INFO  ] test          - test - 1
18:37:10:457.320452 [INFO  ] test          - test - 2
18:37:10:560.322285 [INFO  ] test          - test - 3
18:37:10:661.324501 [INFO  ] test          - test - 4
18:37:10:762.326956 [INFO  ] test          - test - 5
18:37:10:863.328934 [INFO  ] test          - test - 6
18:37:10:964.330912 [INFO  ] test          - test - 7
18:37:11:066.333294 [INFO  ] test          - test - 8
18:37:11:168.336391 [INFO  ] test          - test - 9
18:37:11:270.336866 [INFO  ] test          - test - 10
18:37:11:371.339560 [INFO  ] test          - test - 11
18:37:11:473.341465 [INFO  ] test          - test - 12
18:37:11:575.343609 [INFO  ] test          - test - 13
18:37:11:677.345514 [INFO  ] test          - test - 14
18:37:11:779.347181 [INFO  ] test          - test - 15
18:37:11:880.349636 [INFO  ] test          - test - 16
18:37:11:982.351542 [INFO  ] test          - test - 17
18:37:12:083.353043 [INFO  ] test          - test - 18
18:37:12:184.355497 [INFO  ] test          - test - 19
18:37:12:286.357403 [INFO  ] test          - test - 20
18:37:12:388.359785 [INFO  ] test          - test - 21
18:37:12:490.361929 [INFO  ] test          - test - 22
18:37:12:592.363358 [INFO  ] test          - test - 23
18:37:12:693.365574 [INFO  ] test          - test - 24
18:37:12:794.367790 [INFO  ] test          - test - 25
18:37:12:895.369768 [INFO  ] test          - test - 26
18:37:12:998.372078 [INFO  ] test          - test - 27
18:37:13:100.373507 [INFO  ] test          - test - 28
18:37:13:201.375723 [INFO  ] test          - test - 29
18:37:13:302.377939 [INFO  ] test          - test - 30
18:37:13:404.380322 [INFO  ] test          - test - 31
18:37:13:506.381750 [INFO  ] test          - test - 32
18:37:13:607.385635 [INFO  ] test          - test - 33
18:37:13:709.385395 [INFO  ] test          - test - 34
18:37:13:812.386513 [INFO  ] test          - test - 35
18:37:13:915.390253 [INFO  ] test          - test - 36
18:37:14:016.392469 [INFO  ] test          - test - 37
18:37:14:118.394375 [INFO  ] test          - test - 38
18:37:14:220.396280 [INFO  ] test          - test - 39
18:37:14:321.398258 [INFO  ] test          - test - 40
18:37:14:422.400475 [INFO  ] test          - test - 41
18:37:14:524.402857 [INFO  ] test          - test - 42
18:37:14:625.404358 [INFO  ] test          - test - 43
18:37:14:726.406574 [INFO  ] test          - test - 44
18:37:14:829.408169 [INFO  ] test          - test - 45
18:37:14:930.403471 [INFO  ] test          - test - 46
18:37:15:031.412363 [INFO  ] test          - test - 47
18:37:15:132.414818 [INFO  ] test          - test - 48
18:37:15:234.416723 [INFO  ] test          - test - 49
18:37:29:329.699278 [INFO  ] test          - test - 0
18:37:29:434.702158 [INFO  ] test          - test - 1
18:37:29:541.704178 [INFO  ] test          - test - 2
18:37:29:647.706270 [INFO  ] test          - test - 3
18:37:29:751.709223 [INFO  ] test          - test - 4
18:37:29:856.710434 [INFO  ] test          - test - 5
18:37:29:960.712433 [INFO  ] test          - test - 6
18:37:30:066.714764 [INFO  ] test          - test - 7
18:37:30:172.716856 [INFO  ] test          - test - 8
18:37:30:278.719187 [INFO  ] test          - test - 9
18:37:30:384.721518 [INFO  ] test          - test - 10
18:37:30:488.723278 [INFO  ] test          - test - 11
18:37:30:593.725681 [INFO  ] test          - test - 12
18:37:30:699.727774 [INFO  ] test          - test - 13
18:37:30:805.729866 [INFO  ] test          - test - 14
18:37:30:912.732363 [INFO  ] test          - test - 15
18:37:31:018.733978 [INFO  ] test          - test - 16
18:37:31:123.736143 [INFO  ] test          - test - 17
18:37:31:229.738474 [INFO  ] test          - test - 18
18:37:31:336.740494 [INFO  ] test          - test - 19
18:37:31:442.742348 [INFO  ] test          - test - 20
18:37:31:547.744513 [INFO  ] test          - test - 21
18:37:44:962.013960 [INFO  ] test          - test - 0
18:37:45:075.015306 [INFO  ] test          - test - 1
18:37:45:190.017462 [INFO  ] test          - test - 2
18:37:45:296.020508 [INFO  ] test          - test - 3
18:37:45:401.022434 [INFO  ] test          - test - 4
18:37:45:506.026268 [INFO  ] test          - test - 5
18:37:45:612.027168 [INFO  ] test          - test - 6
18:37:45:717.052221 [INFO  ] test          - test - 7
18:37:45:821.030855 [INFO  ] test          - test - 8
18:37:45:926.033497 [INFO  ] test          - test - 9
18:37:46:032.035828 [INFO  ] test          - test - 10
18:37:46:137.037754 [INFO  ] test          - test - 11
18:37:46:242.040396 [INFO  ] test          - test - 12
18:37:46:348.042011 [INFO  ] test          - test - 13
18:37:46:454.036951 [INFO  ] test          - test - 14
18:37:46:558.045626 [INFO  ] test          - test - 15
18:37:46:665.041685 [INFO  ] test          - test - 16
18:37:46:771.050692 [INFO  ] test          - test - 17
18:37:46:879.053354 [INFO  ] test          - test - 18
18:37:46:988.054991 [INFO  ] test          - test - 19
18:37:47:094.057322 [INFO  ] test          - test - 20
18:37:47:201.059580 [INFO  ] test          - test - 21
18:37:47:308.062315 [INFO  ] test          - test - 22
18:37:47:413.063526 [INFO  ] test          - test - 23
18:37:47:519.066811 [INFO  ] test          - test - 24
